1026      1463319722.06  1463320517.85  795.795451164
1026      1463320798.86   1463321574.1  775.239227057
1026      1463322401.6  1463323164.53  762.922670841
1026      1463324803.65  1463325562.19  758.547598124
1026      1463328722.43  1463329474.11  751.678100824
1026      1463337413.7  1463338175.65   761.95613122
1026      1463339796.41  1463340578.99     782.579319
1026      1463342455.42  1463343233.71  778.289743185
1026      1463346256.59   1463347041.0  784.410293102
1026      1463347860.94  1463348650.52  789.582372904
1026      1463347057.33  1463348650.53  1593.20861316
1026      1463350590.88  1463351400.76  809.881790876
1026      1463351429.65  1463352208.09  778.436715126
1026      1463352237.16  1463353014.06  776.897268057
1026      1463353042.93  1463353832.92  789.989725113
1026      1463353862.19  1463354662.44  800.250133991
1026      1463354691.46  1463355469.06  777.607615948
1026      1463355497.44  1463356259.87  762.428241968
1026      1463356288.39  1463357061.63   773.23728013
1026      1463357090.39  1463357857.97  767.581389189
1026      1463357886.49  1463358652.71  766.219321012
1026      1463384076.17  1463384861.91  785.735770941
1026      1463384890.83   1463385691.4  800.569943905
1026      1463387514.81  1463388282.07  767.266879082
1026      1463388310.94  1463389085.38  774.435094118
1026      1463389114.21  1463389882.82  768.604948997
1026      1463389911.53  1463390692.84  781.307493925
1026      1463390721.43   1463391491.7  770.270514011
1026      1463391520.53  1463392286.23  765.698235035
1026      1463392314.85  1463393132.24  817.390038967
1026      1463393161.28  1463393934.11  772.836688995
1026      1463393963.61  1463394737.51  773.893244028
1026      1463394766.7  1463395535.81  769.108690977
1026      1463395564.37  1463396385.34  820.968782902
1026      1463396414.29  1463397184.73  770.440629959
1026      1463397213.28  1463397971.92  758.638879061
1026      1463398000.55  1463398826.99  826.439372063
1026      1463398855.81  1463399632.93  777.117115021
1026      1463399661.87  1463400475.08  813.204903126
1026      1463400503.72  1463401314.24  810.520277977
1026      1463401342.99  1463402140.44  797.448873043
2052      1463419940.96  1463420806.79  865.830145121
2052      1463437697.25  1463438573.84  876.585093975
2052      1463438625.91  1463439482.08  856.170584917
2052      1463439534.29  1463440410.76  876.468482971
2052      1463440462.88  1463441323.16  860.278778791
2052      1463441375.46  1463442201.78  826.319247007
2052      1463442253.78  1463443084.67  830.897739887
2052      1463443137.59   1463443995.6  858.014617205
2052      1463444048.34  1463444885.78  837.436410189
2052      1463444937.84  1463445802.39  864.548291206
2052      1463445854.43  1463446689.12  834.690531015
2052      1463446742.0  1463447581.42  839.425160885
2052      1463447633.7  1463448459.25  825.551634073
2052      1463448511.09  1463449345.16  834.075792074
2052      1463449397.84  1463450287.89  890.048316956
2052      1463494870.86   1463495735.7  864.835183144
2052      1463495800.12  1463496652.89  852.779243946
2052      1463496720.3  1463497591.05   870.75169301
2052      1463497655.32  1463498515.45  860.127791166
2052      1463498580.02  1463499429.07   849.05689311
2052      1463499493.57  1463500329.04  835.476784229
2052      1463500393.76  1463501239.01  845.247894049
2052      1463501303.12  1463502133.11  829.986826181
2052      1463502197.52  1463503068.88  871.367105961
2052      1463503133.12  1463503977.18  844.051985025
2052      1463504041.72  1463504881.43  839.714118004
2052      1463504946.15  1463505787.14  840.984478951
2052      1463505852.31  1463506702.91  850.597775936
2052      1463524205.87  1463525135.39  929.517174006
2052      1463529090.58  1463530002.25  911.667756796
2052      1463530829.07  1463531809.14  980.069412947
2052      1463531882.97   1463532753.4  870.432363987
2052      1463537358.6   1463538217.3  858.703561068
2052      1463538290.34  1463539147.17  856.832746029
2052      1463539219.76  1463540118.92  899.159873009
3078      1463578593.87  1463579527.19  933.316040993
3078      1463579632.22  1463580574.58  942.361860037
3078      1463580678.77  1463581627.07  948.302418947
3078      1463581731.28  1463582662.78  931.498212099
3078      1463582766.33  1463583708.29  941.963973999
3078      1463583813.53  1463584813.12  999.583055019
3078      1463585626.41   1463586578.8  952.394457102
3078      1463592120.08  1463593071.66  951.577849865
3078      1463593176.07  1463594093.93  917.853667974
3078      1463594198.54  1463595127.72  929.177313089
3078      1463595232.92  1463596181.09  948.170243025
3078      1463596285.41  1463597215.37  929.967728853
3078      1463597319.85  1463598259.81  939.953738928
3078      1463598364.23  1463599280.48  916.251230955
3078      1463599384.9  1463600306.28  921.379787922
3078      1463600410.2  1463601331.16  920.965845108
3078      1463601434.73  1463602349.45  914.715903997
3078      1463612354.16  1463613376.17  1022.00703096
3078      1463613480.06   1463614414.9  934.845266104
3078      1463654238.57  1463655185.72  947.147218943
3078      1463655288.65  1463656253.09  964.434700966
3078      1463656356.38  1463657271.73  915.350865841
3078      1463657375.15  1463658296.64   921.48582387
3078      1463660253.33  1463661161.98  908.653287172
3078      1463661265.69   1463662188.7  923.008049011
3078      1463662292.72  1463663316.19  1023.46250081
3078      1463663419.5  1463664363.05  943.549033165
3078      1463664466.54  1463665398.71  932.169462919
3078      1463665502.8  1463666434.16  931.359141111
3078      1463666537.81  1463667449.47  911.662434101
3078      1463667554.32  1463668510.57  956.245350122
3078      1463668615.09  1463669528.74  913.656916857
3078      1463669632.82  1463670573.61  940.794309855
3078      1463670677.17  1463671610.35  933.182122946
3078      1463671714.25  1463672653.58  939.329030991
3078      1463672757.68  1463673694.25   936.57725811
3078      1463673798.02  1463674735.63  937.608560085
3078      1463674839.91  1463675781.09  941.177878857
4104      1463676969.35  1463677998.85  1029.49923205
4104      1463678128.63  1463679194.95   1066.3122139
4104      1463679322.96  1463680334.96  1012.00084496
4104      1463680463.1  1463681495.26  1032.16328311
4104      1463681623.12  1463682654.22  1031.09872699
4104      1463682782.42  1463683844.82  1062.40284801
4104      1463683973.11  1463684994.72  1021.61122203
4104      1463685122.75  1463686186.54  1063.78808689
4104      1463686316.05  1463687345.78  1029.72570419
4104      1463687474.3  1463688500.25  1025.95567012
4104      1463688628.53  1463689666.23  1037.69014812
4104      1463689794.61  1463690852.15  1057.53942585
4104      1463690980.23  1463692043.72  1063.48415184
4104      1463692171.44  1463693196.12  1024.68141294
4104      1463693323.65  1463694356.61  1032.95517612
4104      1463694484.74  1463695551.01  1066.27197599
4104      1463695679.6  1463696702.91  1023.31317306
4104      1463696831.05  1463697840.16  1009.11200404
4104      1463697969.04  1463698995.26  1026.22683215
4104      1463699123.06  1463700187.63  1064.57209492
4104      1463700316.94  1463701361.91  1044.96814108
4104      1463701489.9  1463702537.12  1047.21788406
4104      1463702665.49  1463703689.64  1024.14932919
4104      1463707021.02  1463708082.46  1061.43818092
4104      1463708210.17  1463709283.03  1072.86443996
4104      1463709411.18  1463710483.08  1071.89474702
4104      1463710611.46  1463711681.01  1069.54338694
4104      1463711810.26  1463712839.44  1029.18213201
4104      1463712967.7   1463714007.6  1039.90207219
4104      1463714135.95  1463715157.15  1021.19630504
4104      1463715285.26   1463716307.9   1022.6467011
4104      1463716437.12  1463717481.94    1044.816221
4104      1463717610.81  1463718655.65  1044.83954406
4104      1463718783.9  1463719819.18  1035.28018999
4104      1463719947.03  1463720981.91  1034.87236214
4104      1463721110.45   1463722135.8  1025.34884787
4104      1463722264.29  1463723280.56  1016.26749682
4104      1463723409.51  1463724437.15    1027.640764
4104      1463724565.01  1463725590.98  1025.96624708
4104      1463725720.03  1463726768.21  1048.17834401
4104      1463726897.16  1463727928.43  1031.27240181
4104      1463728057.27   1463729081.2  1023.92859197
4104      1463729210.11  1463730233.91  1023.80212307
5130      1463737541.06  1463738715.73  1174.66916108
5130      1463738873.83  1463740060.97  1187.13513112
5130      1463740218.78  1463741401.56  1182.77944016
5130      1463741559.02  1463742729.01  1169.98885894
5130      1463744814.66  1463746035.48  1220.82321405
5130      1463746193.57  1463747377.26  1183.69412494
5130      1463747535.46  1463748731.85  1196.38552809
5130      1463748889.29   1463750054.8  1165.51061702
5130      1463750211.82  1463751392.18  1180.36158395
5130      1463751549.08  1463752756.84   1207.7578671
5130      1463752914.4  1463754094.68  1180.28850698
5130      1463754252.19  1463755400.08  1147.88744187
5130      1463755558.12  1463756739.05  1180.92914915
5130      1463756899.65  1463758072.39  1172.73944497
5130      1463758230.16  1463759475.85  1245.69137406
5130      1463759632.21  1463760820.02  1187.81324601
5130      1463760976.94  1463762186.09  1209.14274907
5130      1463762345.32  1463763553.46  1208.13092899
5130      1463763710.3  1463764920.57  1210.26668501
5130      1463765077.33  1463766282.96  1205.63305187
5130      1463766441.25  1463767643.44  1202.19172311
5130      1463767800.3  1463768984.77   1184.4650538
5130      1463769142.28  1463770378.84  1236.55665398
5130      1463770536.94  1463771746.93  1209.99254203
5130      1463771903.38  1463773069.42  1166.04093003
5130      1463777247.47   1463778415.6  1168.12857795
5130      1463778572.6  1463779833.54  1260.93672109
5130      1463779991.01  1463781160.38  1169.36835885
5130      1463781317.77  1463782476.04  1158.26450491
5130      1463782632.3  1463783808.59  1176.28873301
5130      1463783966.88  1463785117.98  1151.09412909
